R Client for the Network Linked Data Index — findNLDI • dataRetrieval
…
#> dimension:      XY
#> bbox:           xmin: -119.8118 ymin: 34.42472 xmax: -119.8118 ymax: 34.42472
#> geographic CRS: WGS 84
#> # A tibble: 1 x 6
#>   sourceName identifier comid        X     Y             geometry
#> * <chr>      <chr>      <chr>    <dbl> <dbl>          <POINT [°]>
#> 1 NWIS Sites 11120000   17595429 -120.  34.4 (-119.8118 34.42472)
#> 
#> $UT_flowlines
#> Simple feature collection with 25 features and 1 field
#> geometry type:  LINESTRING
#> dimension:      XY
#> bbox:           xmin: -119.8296 ymin: 34.42015 xmax: -119.7332 ymax: 34.51769
#> geographic CRS: WGS 84
#> # A tibble: 25 x 2
#>    nhdplus_comid                                                        geometry
#>    <chr>                                                        <LINESTRING [°]>
#>  1 17595429      (-119.8104 34.42513, -119.8112 34.42476, -119.8123 34.42447, -…
#>  2 17595393      (-119.8052 34.44199, -119.8051 34.44135, -119.8052 34.44069, -…
#>  3 17595395      (-119.7859 34.43139, -119.7861 34.43114, -119.7868 34.43091, -…
#>  4 17596113      (-119.7658 34.47264, -119.7658 34.47214, -119.766 34.4718, -11…
#>  5 17596111      (-119.7944 34.45971, -119.7952 34.45939, -119.7956 34.45906, -…
#>  6 17595361      (-119.7755 34.43447, -119.7761 34.43406, -119.7782 34.43337, -…
#>  7 17596115      (-119.7709 34.45809, -119.7714 34.45738, -119.772 34.45692, -1…
#>  8 17595239      (-119.7624 34.4798, -119.7626 34.47978, -119.7631 34.4796, -11…
#>  9 17596077      (-119.7435 34.5, -119.7439 34.49933, -119.7447 34.49844, -119.…
#> 10 17595277      (-119.7914 34.47602, -119.7915 34.47557, -119.7914 34.47421, -…
#> # … with 15 more rows
…
#> geographic CRS: WGS 84
#> # A tibble: 3 x 6
#>   sourceName identifier comid        X     Y             geometry
#> * <chr>      <chr>      <chr>    <dbl> <dbl>          <POINT [°]>
#> 1 NWIS Sites 11119900   17595361 -120.  34.4 (-119.7843 34.43222)
#> 2 NWIS Sites 11120000   17595429 -120.  34.4 (-119.8118 34.42472)
#> 3 NWIS Sites 11119940   17596111 -120.  34.4   (-119.8037 34.445)
#> 
#> $UT_WQP
#> Simple feature collection with 64 features and 5 fields
#> geometry type:  POINT
#> dimension:      XY
#> bbox:           xmin: -119.824 ymin: 34.4224 xmax: -119.7479 ymax: 34.4525
#> geographic CRS: WGS 84
#> # A tibble: 64 x 6
#>    sourceName        identifier        comid       X     Y              geometry
#>    <chr>             <chr>             <chr>   <dbl> <dbl>           <POINT [°]>
#>  1 Water Quality Po… USGS-34261011948… 175953… -120.  34.4  (-119.8099 34.43611)
#>  2 Water Quality Po… CEDEN-315ATA      175954… -120.  34.4    (-119.819 34.4235)
#>  3 Water Quality Po… USGS-34270511947… 175961… -120.  34.5  (-119.7999 34.45139)
#>  4 Water Quality Po… USGS-34253811948… 175954… -120.  34.4   (-119.814 34.42722)
#>  5 Water Quality Po… USGS-34261211946… 175961… -120.  34.4  (-119.7742 34.43617)
#>  6 Water Quality Po… USGS-34253911948… 175953… -120.  34.4   (-119.8107 34.4275)
#>  7 Water Quality Po… USGS-34261911948… 175953… -120.  34.4  (-119.8021 34.43861)
#>  8 Water Quality Po… USGS-34264211947… 175961… -120.  34.4    (-119.7963 34.445)
#>  9 Water Quality Po… USGS-34264211944… 175953… -120.  34.4    (-119.7479 34.445)
#> 10 Water Quality Po… USGS-34270511947… 175961… -120.  34.5  (-119.7999 34.45139)
#> # … with 54 more rows
…
